(2)/Midterm/Week5/lab2/simulation/qsim/mux_4x1_beh.msim.vcd
$comment
	File created using the following command:
		vcd file mux_4x1_beh.msim.vcd -direction
$end
$date
	Sun Nov 08 11:05:17 2020
$end
$version
	ModelSim Version 10.1d
$end
$timescale
	1ps
$end
$scope module mux_4x1_beh_vlg_vec_tst $end
$var reg 1 ! in_0 $end
$var reg 1 " in_1 $end
$var reg 1 # in_2 $end
$var reg 1 $ in_3 $end
$var reg 2 % select [1:0] $end
$var wire 1 & m_out $end
$var wire 1 ' sampler $end
$scope module i1 $end
$var wire 1 ( gnd $end
$var wire 1 ) vcc $end
$var wire 1 * unknown $end
$var tri1 1 + devclrn $end
$var tri1 1 , devpor $end
$var tri1 1 - devoe $end
$var wire 1 . m_out~output_o $end
$var wire 1 / in_3~input_o $end
$var wire 1 0 in_2~input_o $end
$var wire 1 1 select[1]~input_o $end
$var wire 1 2 in_0~input_o $end
$var wire 1 3 select[0]~input_o $end
$var wire 1 4 in_1~input_o $end
$var wire 1 5 Mux0~0_combout $end
$var wire 1 6 Mux0~1_combout $end
$upscope $end
$upscope $end
$enddefinitions $end
#0
$dumpvars
0!
0"
0#
0$
b0 %
0&
x'
0(
1)
x*
1+
1,
1-
0.
0/
00
01
02
03
04
05
06
$end
#77000
b1 %
13
0'
#100000
1$
1/
1'
#154000
b11 %
b10 %
03
11
0'
#200000
1#
0$
10
0/
1'
16
1.
1&
#231000
b11 %
13
0'
15
06
0.
0&
#300000
1$
1/
1'
16
1.
1&
#308000
b1 %
b0 %
03
01
0'
05
06
0.
0&
#385000
b1 %
13
1'
#400000
1"
0#
0$
14
00
0/
0'
15
16
1.
1&
#462000
b11 %
b10 %
03
11
1'
05
06
0.
0&
#500000
1$
1/
0'
#539000
b11 %
13
1'
15
16
1.
1&
#600000
1#
0$
10
0/
0'
06
0.
0&
#616000
b1 %
b0 %
03
01
1'
05
16
1.
1&
06
0.
0&
#693000
b1 %
13
0'
15
16
1.
1&
#700000
1$
1/
1'
#770000
b11 %
b10 %
03
11
0'
05
#800000
1!
0"
0#
0$
12
04
00
0/
1'
06
0.
0&
#847000
b11 %
13
0'
15
#900000
1$
1/
1'
16
1.
1&
#924000
b1 %
b0 %
03
01
0'
