(2)/Midterm/Week5/lab1/simulation/qsim/mux_2x1_beh.msim.vcd
$comment
	File created using the following command:
		vcd file mux_2x1_beh.msim.vcd -direction
$end
$date
	Sun Nov 08 10:54:08 2020
$end
$version
	ModelSim Version 10.1d
$end
$timescale
	1ps
$end
$scope module mux_2x1_beh_vlg_vec_tst $end
$var reg 1 ! A $end
$var reg 1 " B $end
$var reg 1 # select $end
$var wire 1 $ m_out $end
$var wire 1 % sampler $end
$scope module i1 $end
$var wire 1 & gnd $end
$var wire 1 ' vcc $end
$var wire 1 ( unknown $end
$var tri1 1 ) devclrn $end
$var tri1 1 * devpor $end
$var tri1 1 + devoe $end
$var wire 1 , m_out~output_o $end
$var wire 1 - B~input_o $end
$var wire 1 . A~input_o $end
$var wire 1 / select~input_o $end
$var wire 1 0 m_out~0_combout $end
$upscope $end
$upscope $end
$enddefinitions $end
#0
$dumpvars
0!
0"
0#
0$
x%
0&
1'
x(
1)
1*
1+
0,
0-
0.
0/
00
$end
#77000
1#
1/
0%
#100000
1"
1-
1%
#154000
0#
0/
0%
10
1,
1$
#200000
1!
0"
1.
0-
1%
00
0,
0$
#231000
1#
1/
0%
10
1,
1$
#300000
1"
1-
1%
#308000
0#
0/
0%
#385000
1#
1/
1%
#400000
0!
0"
0.
0-
0%
00
0,
0$
#462000
0#
0/
1%
#500000
1"
1-
0%
10
1,
1$
#539000
1#
1/
1%
00
0,
0$
#600000
1!
0"
1.
0-
0%
10
1,
1$
#616000
0#
0/
1%
00
0,
0$
#693000
1#
1/
0%
10
1,
1$
#700000
1"
1-
1%
#770000
0#
0/
0%
#800000
0!
0"
0.
0-
1%
00
0,
0$
#847000
1#
1/
0%
#900000
1"
1-
1%
#924000
0#
0/
0%
10
1,
1$
