(2)/Week6/Demo1/simulation/qsim/D_Flip_flop.msim.vcd
$comment
	File created using the following command:
		vcd file D_Flip_flop.msim.vcd -direction
$end
$date
	Tue Oct 20 14:47:26 2020
$end
$version
	ModelSim Version 10.1d
$end
$timescale
	1ps
$end
$scope module D_Flip_flop_vlg_vec_tst $end
$var reg 1 ! Clk $end
$var reg 1 " D $end
$var wire 1 # Q $end
$var wire 1 $ sampler $end
$scope module i1 $end
$var wire 1 % gnd $end
$var wire 1 & vcc $end
$var wire 1 ' unknown $end
$var tri1 1 ( devclrn $end
$var tri1 1 ) devpor $end
$var tri1 1 * devoe $end
$var wire 1 + Q~output_o $end
$var wire 1 , Clk~input_o $end
$var wire 1 - D~input_o $end
$var wire 1 . Q~reg0feeder_combout $end
$var wire 1 / Q~reg0_q $end
$upscope $end
$upscope $end
$enddefinitions $end
#0
$dumpvars
0!
0"
0#
x$
0%
1&
x'
1(
1)
1*
0+
0,
0-
0.
0/
$end
#50000
1!
1,
0$
#97000
1"
1-
1$
1.
#100000
0!
0,
0$
#150000
1!
1,
1$
1/
1+
1#
#194000
0"
0-
0$
0.
#200000
0!
0,
1$
#250000
1!
1,
0$
0/
0+
0#
#291000
1"
1-
1$
1.
#300000
0!
0,
0$
#350000
1!
1,
1$
1/
1+
1#
#388000
0"
0-
0$
0.
#400000
0!
0,
1$
#450000
1!
1,
0$
0/
0+
0#
#485000
1"
1-
1$
1.
#500000
0!
0,
0$
#550000
1!
1,
1$
1/
1+
1#
#582000
0"
0-
0$
0.
#600000
0!
0,
1$
#650000
1!
1,
0$
0/
0+
0#
#679000
1"
1-
1$
1.
#700000
0!
0,
0$
#750000
1!
1,
1$
1/
1+
1#
#776000
0"
0-
0$
0.
#800000
0!
0,
1$
#850000
1!
1,
0$
0/
0+
0#
#873000
1"
1-
1$
1.
#900000
0!
0,
0$
#950000
1!
1,
1$
1/
1+
1#
#970000
0"
0-
0$
0.
