(2)/Midterm/Week6/lab2/simulation/qsim/JK_FF.msim.vcd
$comment
	File created using the following command:
		vcd file JK_FF.msim.vcd -direction
$end
$date
	Sun Nov 08 20:34:12 2020
$end
$version
	ModelSim Version 10.1d
$end
$timescale
	1ps
$end
$scope module JK_FF_vlg_vec_tst $end
$var reg 1 ! clk $end
$var reg 1 " j $end
$var reg 1 # k $end
$var wire 1 $ Q $end
$var wire 1 % Q_b $end
$var wire 1 & sampler $end
$scope module i1 $end
$var wire 1 ' gnd $end
$var wire 1 ( vcc $end
$var wire 1 ) unknown $end
$var tri1 1 * devclrn $end
$var tri1 1 + devpor $end
$var tri1 1 , devoe $end
$var wire 1 - Q~output_o $end
$var wire 1 . Q_b~output_o $end
$var wire 1 / clk~input_o $end
$var wire 1 0 j~input_o $end
$var wire 1 1 k~input_o $end
$var wire 1 2 Mux0~0_combout $end
$var wire 1 3 Q~reg0_q $end
$upscope $end
$upscope $end
$enddefinitions $end
#0
$dumpvars
0!
0"
0#
0$
1%
x&
0'
1(
x)
1*
1+
1,
0-
1.
0/
00
01
02
03
$end
#77000
1!
1/
0&
#100000
1#
11
1&
#154000
0!
0/
0&
#200000
1"
0#
10
01
1&
12
#231000
1!
1/
0&
13
1-
0.
1$
0%
#300000
1#
11
1&
02
#308000
0!
0/
0&
#385000
1!
1/
1&
03
12
0-
1.
0$
1%
#400000
0"
0#
00
01
0&
02
#462000
0!
0/
1&
#500000
1#
11
0&
#539000
1!
1/
1&
#600000
1"
0#
10
01
0&
12
#616000
0!
0/
1&
#693000
1!
1/
0&
13
1-
0.
1$
0%
#700000
1#
11
1&
02
#770000
0!
0/
0&
#800000
0"
0#
00
01
1&
12
#847000
1!
1/
0&
#900000
1#
11
1&
02
#924000
0!
0/
0&
