(2)/Week6/Demo2/simulation/qsim/JK_Flip_flop.msim.vcd
$comment
	File created using the following command:
		vcd file JK_Flip_flop.msim.vcd -direction
$end
$date
	Tue Oct 20 15:02:27 2020
$end
$version
	ModelSim Version 10.1d
$end
$timescale
	1ps
$end
$scope module JK_Flip_flop_vlg_vec_tst $end
$var reg 1 ! Clk $end
$var reg 1 " J $end
$var reg 1 # K $end
$var wire 1 $ Q $end
$var wire 1 % Q_b $end
$var wire 1 & sampler $end
$scope module i1 $end
$var wire 1 ' gnd $end
$var wire 1 ( vcc $end
$var wire 1 ) unknown $end
$var tri1 1 * devclrn $end
$var tri1 1 + devpor $end
$var tri1 1 , devoe $end
$var wire 1 - Q~output_o $end
$var wire 1 . Q_b~output_o $end
$var wire 1 / Clk~input_o $end
$var wire 1 0 J~input_o $end
$var wire 1 1 K~input_o $end
$var wire 1 2 Mux0~0_combout $end
$var wire 1 3 Q~reg0_q $end
$upscope $end
$upscope $end
$enddefinitions $end
#0
$dumpvars
0!
0"
0#
0$
0%
x&
0'
1(
x)
1*
1+
1,
0-
0.
0/
00
01
02
03
$end
#50000
1!
1/
0&
#100000
1#
0!
11
0/
1&
#150000
1!
1/
0&
#200000
1"
0#
0!
10
01
0/
1&
12
#250000
1!
1/
0&
13
1-
1$
#300000
1#
0!
11
0/
1&
02
#350000
1!
1/
0&
03
12
0-
0$
#400000
0"
0#
0!
00
01
0/
1&
02
#450000
1!
1/
0&
#500000
1#
0!
11
0/
1&
#550000
1!
1/
0&
#600000
1"
0#
0!
10
01
0/
1&
12
#650000
1!
1/
0&
13
1-
1$
#700000
1#
0!
11
0/
1&
02
#750000
1!
1/
0&
03
12
0-
0$
#800000
0"
0#
0!
00
01
0/
1&
02
#850000
1!
1/
0&
#900000
1#
0!
11
0/
1&
#950000
1!
1/
0&
