(2)/Week6/Demo3_2/simulation/qsim/Mealy_Zero_Detector.msim.vcd
$comment
	File created using the following command:
		vcd file Mealy_Zero_Detector.msim.vcd -direction
$end
$date
	Sun Oct 18 12:31:03 2020
$end
$version
	ModelSim Version 10.1d
$end
$timescale
	1ps
$end
$scope module Mealy_Zero_Detector_vlg_vec_tst $end
$var reg 1 ! clock $end
$var reg 1 " reset $end
$var reg 1 # x_in $end
$var wire 1 $ s0 $end
$var wire 1 % s1 $end
$var wire 1 & y_out $end
$var wire 1 ' sampler $end
$scope module i1 $end
$var wire 1 ( gnd $end
$var wire 1 ) vcc $end
$var wire 1 * unknown $end
$var tri1 1 + devclrn $end
$var tri1 1 , devpor $end
$var tri1 1 - devoe $end
$var wire 1 . y_out~output_o $end
$var wire 1 / s1~output_o $end
$var wire 1 0 s0~output_o $end
$var wire 1 1 clock~input_o $end
$var wire 1 2 clock~inputclkctrl_outclk $end
$var wire 1 3 x_in~input_o $end
$var wire 1 4 Mux0~0_combout $end
$var wire 1 5 reset~input_o $end
$var wire 1 6 reset~inputclkctrl_outclk $end
$var wire 1 7 Mux1~0_combout $end
$var wire 1 8 Mux2~0_combout $end
$var wire 1 9 state [1] $end
$var wire 1 : state [0] $end
$upscope $end
$upscope $end
$enddefinitions $end
#0
$dumpvars
0!
1"
0#
0$
0%
0&
x'
0(
1)
x*
1+
1,
1-
0.
0/
00
01
02
03
04
15
16
07
18
0:
09
$end
#10000
1!
11
12
0'
#20000
0!
01
02
1'
#30000
1!
11
12
0'
#40000
0!
01
02
1'
#50000
1!
11
12
0'
#60000
0!
01
02
1'
#70000
1!
11
12
0'
#80000
0!
01
02
1'
#90000
1!
11
12
0'
#100000
1#
0!
13
01
02
1'
17
#110000
1!
11
12
0'
1:
14
10
1$
#120000
0!
01
02
1'
#130000
1!
11
12
0'
19
07
1/
1%
#140000
0!
01
02
1'
#150000
1!
11
12
0'
0:
00
0$
#160000
0!
01
02
1'
#170000
1!
11
12
0'
#180000
0!
01
02
1'
#190000
1!
11
12
0'
#200000
0#
0!
03
01
02
1'
08
04
1.
1&
#210000
1!
11
12
0'
09
18
0/
0%
0.
0&
#220000
0!
01
02
1'
#230000
1!
11
12
0'
#240000
0!
01
02
1'
#250000
1!
11
12
0'
#260000
0!
01
02
1'
#270000
1!
11
12
0'
#280000
0!
01
02
1'
#290000
1!
11
12
0'
#300000
1#
0!
13
01
02
1'
17
#310000
1!
11
12
0'
1:
14
10
1$
#320000
0!
01
02
1'
#330000
1!
11
12
0'
19
07
1/
1%
#340000
0!
01
02
1'
#350000
1!
11
12
0'
0:
00
0$
#360000
0!
01
02
1'
#370000
1!
11
12
0'
#380000
0!
01
02
1'
#390000
1!
11
12
0'
#400000
0#
0!
03
01
02
1'
08
04
1.
1&
#410000
1!
11
12
0'
09
18
0/
0%
0.
0&
#420000
0!
01
02
1'
#430000
1!
11
12
0'
#440000
0!
01
02
1'
#450000
1!
11
12
0'
#460000
0!
01
02
1'
#470000
1!
11
12
0'
#480000
0!
01
02
1'
#490000
1!
11
12
0'
#500000
1#
0!
13
01
02
1'
17
#510000
1!
11
12
0'
1:
14
10
1$
#520000
0!
01
02
1'
#530000
1!
11
12
0'
19
07
1/
1%
#540000
0!
01
02
1'
#550000
1!
11
12
0'
0:
00
0$
#560000
0!
01
02
1'
#570000
1!
11
12
0'
#580000
0!
01
02
1'
#590000
1!
11
12
0'
#600000
0#
0!
03
01
02
1'
08
04
1.
1&
#610000
1!
11
12
0'
09
18
0/
0%
0.
0&
#620000
0!
01
02
1'
#630000
1!
11
12
0'
#640000
0!
01
02
1'
#650000
1!
11
12
0'
#660000
0!
01
02
1'
#670000
1!
11
12
0'
#680000
0!
01
02
1'
#690000
1!
11
12
0'
#700000
1#
0!
13
01
02
1'
17
#710000
1!
11
12
0'
1:
14
10
1$
#720000
0!
01
02
1'
#730000
1!
11
12
0'
19
07
1/
1%
#740000
0!
01
02
1'
#750000
1!
11
12
0'
0:
00
0$
#760000
0!
01
02
1'
#770000
1!
11
12
0'
#780000
0!
01
02
1'
#790000
1!
11
12
0'
#800000
0#
0!
03
01
02
1'
08
04
1.
1&
#810000
1!
11
12
0'
09
18
0/
0%
0.
0&
#820000
0!
01
02
1'
#830000
1!
11
12
0'
#840000
0!
01
02
1'
#850000
1!
11
12
0'
#860000
0!
01
02
1'
#870000
1!
11
12
0'
#880000
0!
01
02
1'
#890000
1!
11
12
0'
#900000
1#
0!
13
01
02
1'
17
#910000
1!
11
12
0'
1:
14
10
1$
#920000
0!
01
02
1'
#930000
1!
11
12
0'
19
07
1/
1%
#940000
0!
01
02
1'
#950000
1!
11
12
0'
0:
00
0$
#960000
0!
01
02
1'
#970000
1!
11
12
0'
#980000
0!
01
02
1'
#990000
1!
11
12
0'
