(2)/Midterm/Week6/lab1/simulation/qsim/D_FF.msim.vcd
$comment
	File created using the following command:
		vcd file D_FF.msim.vcd -direction
$end
$date
	Sun Nov 08 20:27:10 2020
$end
$version
	ModelSim Version 10.1d
$end
$timescale
	1ps
$end
$scope module D_FF_vlg_vec_tst $end
$var reg 1 ! D $end
$var reg 1 " clk $end
$var wire 1 # Q $end
$var wire 1 $ sampler $end
$scope module i1 $end
$var wire 1 % gnd $end
$var wire 1 & vcc $end
$var wire 1 ' unknown $end
$var tri1 1 ( devclrn $end
$var tri1 1 ) devpor $end
$var tri1 1 * devoe $end
$var wire 1 + Q~output_o $end
$var wire 1 , clk~input_o $end
$var wire 1 - D~input_o $end
$var wire 1 . Q~reg0feeder_combout $end
$var wire 1 / Q~reg0_q $end
$upscope $end
$upscope $end
$enddefinitions $end
#0
$dumpvars
0!
0"
0#
x$
0%
1&
x'
1(
1)
1*
0+
0,
0-
0.
0/
$end
#77000
1"
1,
0$
#100000
1!
1-
1$
1.
#154000
0"
0,
0$
#200000
0!
0-
1$
0.
#231000
1"
1,
0$
#300000
1!
1-
1$
1.
#308000
0"
0,
0$
#385000
1"
1,
1$
1/
1+
1#
#400000
0!
0-
0$
0.
#462000
0"
0,
1$
#500000
1!
1-
0$
1.
#539000
1"
1,
1$
#600000
0!
0-
0$
0.
#616000
0"
0,
1$
#693000
1"
1,
0$
0/
0+
0#
#700000
1!
1-
1$
1.
#770000
0"
0,
0$
#800000
0!
0-
1$
0.
#847000
1"
1,
0$
#900000
1!
1-
1$
1.
#924000
0"
0,
0$
